<?xml version="1.0" standalone="no"?>
<!DOCTYPE svg PUBLIC "-//W3C//DTD SVG 20010904//EN"
 "http://www.w3.org/TR/2001/REC-SVG-20010904/DTD/svg10.dtd">
<svg version="1.0" xmlns="http://www.w3.org/2000/svg"
 width="24.000000pt" height="24.000000pt" viewBox="0 0 24.000000 24.000000"
 preserveAspectRatio="xMidYMid meet">
<metadata>
Created by potrace 1.13, written by Peter Selinger 2001-2015
</metadata>
<g transform="translate(0.000000,24.000000) scale(0.100000,-0.100000)"
fill="#000000" stroke="none">
<path d="M0 135 l0 -95 42 0 c24 0 49 -7 60 -17 17 -15 19 -15 36 0 11 10 36
17 60 17 l42 0 0 95 0 95 -120 0 -120 0 0 -95z m220 0 l0 -85 -38 0 c-21 0
-43 -5 -50 -12 -9 -9 -15 -9 -24 0 -7 7 -29 12 -50 12 l-38 0 0 85 0 85 100 0
100 0 0 -85z"/>
</g>
</svg>
